test/data/softwareserialtest.vcd
$version Generated by Wokwi.com $end
$date Wed, 06 Dec 2023 02:17:50 GMT $end
$timescale 1ns $end
$scope module logic $end
$var wire 1 ! D0 $end
$var wire 1 " D1 $end
$upscope $end
$enddefinitions $end
#0
0!
#0
1"
#155750
1!
#2315875
0"
#2419879
1"
#2731891
0"
#2835895
1"
#3147907
0"
#3251911
1"
#3360250
0"
#3568258
1"
#3672262
0"
#3880270
1"
#4192282
0"
#4296286
1"
#4404375
0"
#4508379
1"
#4612382
0"
#4820390
1"
#4924395
0"
#5028399
1"
#5236407
0"
#5340411
1"
#5448500
0"
#5760512
1"
#5864515
0"
#5968520
1"
#6280532
0"
#6384536
1"
#6492625
0"
#6596629
1"
#6700633
0"
#6804637
1"
#6908640
0"
#7116649
1"
#7324657
0"
#7428661
1"
#7536750
0"
#8160774
1"
#8264778
0"
#8472786
1"
#8580875
0"
#8684879
1"
#8892887
0"
#9100895
1"
#9412907
0"
#9516911
1"
#9625125
0"
#9729129
1"
#10145145
0"
#10249148
1"
#10457157
0"
#10561161
1"
#10669312
0"
#10773316
1"
#10877320
0"
#10981324
1"
#11189332
0"
#11293336
1"
#11501344
0"
#11605348
1"
#11713437
0"
#11817441
1"
#11921445
0"
#12025449
1"
#12129453
0"
#12337461
1"
#12545469
0"
#12649473
1"
#12757562
0"
#13069574
1"
#13173578
0"
#13277582
1"
#13589594
0"
#13693598
1"
#13801750
0"
#14217766
1"
#14321770
0"
#14425773
1"
#14633782
0"
#14737786
1"
#14845875
0"
#14949879
1"
#15053883
0"
#15261891
1"
#15365895
0"
#15469898
1"
#15677906
0"
#15781911
1"
#15890000
0"
#16098008
1"
#16410020
0"
#16514024
1"
#16722031
0"
#16826036
1"
#16934125
0"
#17038129
1"
#17350141
0"
#17558149
1"
#17766156
0"
#17870161
1"
#17978312
0"
#18602336
1"
#18706340
0"
#18914348
1"
#19022437
0"
#19126441
1"
#19230445
0"
#19438453
1"
#19542457
0"
#19646461
1"
#19854469
0"
#19958473
1"
#20066562
0"
#20274570
1"
#20586582
0"
#20690586
1"
#20898594
0"
#21002598
1"
#21110750
0"
#21734774
1"
#21838778
0"
#22046786
1"
#22154875
0"
#22258879
1"
#22466886
0"
#22674895
1"
#22986907
0"
#23090911
1"
#23199000
0"
#23303004
1"
#23407008
0"
#23511011
1"
#23615016
0"
#23823024
1"
#24031032
0"
#24135036
1"
#24243125
0"
#24451133
1"
#24555136
0"
#24763145
1"
#25075157
0"
#25179161
1"
#25287312
0"
#25391316
1"
#25495320
0"
#25703328
1"
#25807332
0"
#25911336
1"
#26119344
0"
#26223348
1"
#26331437
0"
#26435441
1"
#26539445
0"
#26955461
1"
#27163469
0"
#27267473
1"
#27375562
0"
#27687574
1"
#27895582
0"
#27999586
1"
#28207594
0"
#28311598
1"
#28419750
0"
#29043774
1"
#29147778
0"
#29355786
1"
#29463875
0"
#29567879
1"
#29671883
0"
#29775886
1"
#29983895
0"
#30087899
1"
#30295907
0"
#30399911
1"
#30508000
0"
#30612004
1"
#31028020
0"
#31132024
1"
#31340031
0"
#31444036
1"
#31552125
0"
#31760133
1"
#32072145
0"
#32176149
1"
#32384156
0"
#32488161
1"
#32596312
0"
#32700316
1"
#32804320
0"
#33012328
1"
#33116332
0"
#33220336
1"
#33428344
0"
#33532348
1"
#33640437
0"
#33952449
1"
#34056453
0"
#34160457
1"
#34472469
0"
#34576473
1"
#34684562
0"
#34788566
1"
#35204582
0"
#35308586
1"
#35516594
0"
#35620598
1"
#35728750
0"
#35936758
1"
#36040762
0"
#36248770
1"
#36560782
0"
#36664786
1"
#36772875
0"
#36980883
1"
#37292895
0"
#37396899
1"
#37500902
0"
#37708911
1"
#37817000
0"
#37921004
1"
#38025008
0"
#38129012
1"
#38337020
0"
#38753036
1"
#38861125
0"
#39069133
1"
#39173137
0"
#39277141
1"
#39381145
0"
#39797161
1"
#3967980437
0!
#3968397437
1!
#3968501812
0!
#3968606000
1!
#3968814562
0!
#3968918750
1!
#3969042875
0!
#3969146750
1!
#3969251125
0!
#3969355312
1!
#3969459687
0!
#3969668250
1!
#3969876812
0!
#3969981000
1!
#3970104812
0!
#3970417437
1!
#3970626000
0!
#3970730187
1!
#3970938750
0!
#3971042937
1!
#3971166750
0!
#3971479375
1!
#3971687937
0!
#3971792125
1!
#3972000687
0!
#3972104875
1!
#3972228687
0!
#3972332562
1!
#3972749500
0!
#3972853687
1!
#3973062250
0!
#3973166437
1!
#3973290250
0!
#3973916000
1!
#3974020375
0!
#3974228937
1!
#3974358750
0!
#3974671375
1!
#3974775750
0!
#3974879937
1!
#3975192687
0!
#3975296875
1!
#3975420687
0!
#3975837687
1!
#3975942062
0!
#3976046250
1!
#3976254812
0!
#3976359000
1!
#3976482812
0!
#3976586687
1!
#3976691062
0!
#3976795250
1!
#3976899625
0!
#3977108187
1!
#3977316750
0!
#3977420937
1!
#3977544750
0!
#3977753000
1!
#3977857375
0!
#3978065937
1!
#3978378687
0!
#3978482875
1!
#3978606687
0!
#3978710562
1!
#3978814937
0!
#3978919125
1!
#3979023500
0!
#3979232062
1!
#3979440625
0!
#3979544812
1!
#3979668625
0!
#3979876875
1!
#3979981250
0!
#3980085437
1!
#3980189812
0!
#3980607125
1!
#5700171125
1!
